{
	"info": {
		"_postman_id": "4a3cd3fd-feb3-4612-aef9-00edde6f7669",
		"name": "social_network",
		"schema": "https://schema.getpostman.com/json/collection/v2.1.0/collection.json",
		"_exporter_id": "12070514"
	},
	"item": [
		{
			"name": "user_creating",
			"request": {
				"method": "POST",
				"header": [],
				"body": {
					"mode": "raw",
					"raw": "{\n  \"first_name\": \"first_name\",\n  \"second_name\": \"second_name\",\n  \"birthdate\": \"1990-01-01\",\n  \"sex\": \"man\",\n  \"city\": \"amsterdam\",\n  \"interests\": \"sex, drugs and rock'n'roll\",\n  \"password\": \"mystrongpassword\"\n}",
					"options": {
						"raw": {
							"language": "json"
						}
					}
				},
				"url": {
					"raw": "0.0.0.0:8000/user/register/",
					"host": [
						"0",
						"0",
						"0",
						"0"
					],
					"port": "8000",
					"path": [
						"user",
						"register",
						""
					]
				}
			},
			"response": []
		},
		{
			"name": "user_get_by_id",
			"request": {
				"method": "GET",
				"header": [],
				"url": {
					"raw": "0.0.0.0:8000/user/get/d3e50a4b-bf1f-45fd-9b9f-1d1d8696e93f/",
					"host": [
						"0",
						"0",
						"0",
						"0"
					],
					"port": "8000",
					"path": [
						"user",
						"get",
						"d3e50a4b-bf1f-45fd-9b9f-1d1d8696e93f",
						""
					]
				}
			},
			"response": []
		},
		{
			"name": "login_get_jwt",
			"request": {
				"auth": {
					"type": "oauth2",
					"oauth2": [
						{
							"key": "addTokenTo",
							"value": "header",
							"type": "string"
						}
					]
				},
				"method": "POST",
				"header": [],
				"body": {
					"mode": "raw",
					"raw": "{\n  \"id\": \"d3e50a4b-bf1f-45fd-9b9f-1d1d8696e93f\",\n  \"password\": \"mystrongpassword\"\n}",
					"options": {
						"raw": {
							"language": "json"
						}
					}
				},
				"url": {
					"raw": "0.0.0.0:8000/login/",
					"host": [
						"0",
						"0",
						"0",
						"0"
					],
					"port": "8000",
					"path": [
						"login",
						""
					]
				}
			},
			"response": []
		},
		{
			"name": "login_test",
			"protocolProfileBehavior": {
				"disableBodyPruning": true
			},
			"request": {
				"auth": {
					"type": "oauth2",
					"oauth2": [
						{
							"key": "addTokenTo",
							"value": "header",
							"type": "string"
						}
					]
				},
				"method": "GET",
				"header": [],
				"body": {
					"mode": "raw",
					"raw": "{\n  \"id\": \"998438b3-8944-4371-9b88-85f1897f0025\",\n  \"password\": \"mystrongpassword\"\n}",
					"options": {
						"raw": {
							"language": "json"
						}
					}
				},
				"url": {
					"raw": "0.0.0.0:8000/login/test/",
					"host": [
						"0",
						"0",
						"0",
						"0"
					],
					"port": "8000",
					"path": [
						"login",
						"test",
						""
					]
				}
			},
			"response": []
		}
	]
}